{"msg":"init","dagFile":"artifacts\\tundra.dag","targets":[]}
{"msg":"enqueueNode","enqueuedNodeAnnotation":"all_tundra_nodes","enqueuedNodeIndex":0}
{"msg":"enqueueNode","enqueuedNodeAnnotation":"Il2Cpp C:/Users/user/Desktop/game/Unity_game_6_TheSeaSlot/Library/Il2cppBuildCache/Android/arm64-v8a/Native/arm64-v8a/libil2cpp.so","enqueuedNodeIndex":1,"enqueueingNodeAnnotation":"all_tundra_nodes","enqueueingNodeIndex":0}
{"msg":"newNode","annotation":"Il2Cpp C:/Users/user/Desktop/game/Unity_game_6_TheSeaSlot/Library/Il2cppBuildCache/Android/arm64-v8a/Native/arm64-v8a/libil2cpp.so","index":1}
{"msg":"noderesult","annotation":"Il2Cpp C:/Users/user/Desktop/game/Unity_game_6_TheSeaSlot/Library/Il2cppBuildCache/Android/arm64-v8a/Native/arm64-v8a/libil2cpp.so","index":1,"exitcode":0}
{"msg":"newNode","annotation":"all_tundra_nodes","index":0}
