-a="C:\Users\user\Desktop\game\Unity_game_6_TheSeaSlot\Library\PlayerScriptAssemblies\Assembly-CSharp-firstpass.dll"
-a="C:\Users\user\Desktop\game\Unity_game_6_TheSeaSlot\Library\PlayerScriptAssemblies\Assembly-CSharp.dll"
-a="C:\Users\user\Desktop\game\Unity_game_6_TheSeaSlot\Library\PlayerScriptAssemblies\Purchasing.Common.dll"
-a="C:\Users\user\Desktop\game\Unity_game_6_TheSeaSlot\Library\PlayerScriptAssemblies\UnityEngine.Purchasing.dll"
-a="C:\Users\user\Desktop\game\Unity_game_6_TheSeaSlot\Library\PlayerScriptAssemblies\UnityEngine.Purchasing.WinRTCore.dll"
-a="C:\Users\user\Desktop\game\Unity_game_6_TheSeaSlot\Library\PlayerScriptAssemblies\UnityEngine.Purchasing.AppleMacosStub.dll"
-a="C:\Users\user\Desktop\game\Unity_game_6_TheSeaSlot\Library\PlayerScriptAssemblies\UnityEngine.TestRunner.dll"
-a="C:\Users\user\Desktop\game\Unity_game_6_TheSeaSlot\Library\PlayerScriptAssemblies\Unity.Timeline.dll"
-a="C:\Users\user\Desktop\game\Unity_game_6_TheSeaSlot\Library\PlayerScriptAssemblies\Unity.TextMeshPro.dll"
-a="C:\Users\user\Desktop\game\Unity_game_6_TheSeaSlot\Library\PlayerScriptAssemblies\Unity.Subsystem.Registration.dll"
-a="C:\Users\user\Desktop\game\Unity_game_6_TheSeaSlot\Library\PlayerScriptAssemblies\UnityEngine.Purchasing.Security.dll"
-a="C:\Users\user\Desktop\game\Unity_game_6_TheSeaSlot\Library\PlayerScriptAssemblies\UnityEngine.UI.dll"
-a="C:\Users\user\Desktop\game\Unity_game_6_TheSeaSlot\Library\PlayerScriptAssemblies\UnityEngine.SpatialTracking.dll"
-a="C:\Users\user\Desktop\game\Unity_game_6_TheSeaSlot\Library\PlayerScriptAssemblies\UnityEngine.Purchasing.AppleCore.dll"
-a="C:\Users\user\Desktop\game\Unity_game_6_TheSeaSlot\Library\PlayerScriptAssemblies\Unity.Analytics.DataPrivacy.dll"
-a="C:\Users\user\Desktop\game\Unity_game_6_TheSeaSlot\Library\PlayerScriptAssemblies\UnityEngine.Purchasing.WinRTStub.dll"
-a="C:\Users\user\Desktop\game\Unity_game_6_TheSeaSlot\Library\PlayerScriptAssemblies\UnityEngine.Purchasing.SecurityCore.dll"
-a="C:\Users\user\Desktop\game\Unity_game_6_TheSeaSlot\Library\PlayerScriptAssemblies\UnityEngine.Purchasing.Codeless.dll"
-a="C:\Users\user\Desktop\game\Unity_game_6_TheSeaSlot\Library\PlayerScriptAssemblies\UnityEngine.XR.LegacyInputHelpers.dll"
-a="C:\Users\user\Desktop\game\Unity_game_6_TheSeaSlot\Library\PlayerScriptAssemblies\GoogleMobileAds.dll"
-a="C:\Users\user\Desktop\game\Unity_game_6_TheSeaSlot\Library\PlayerScriptAssemblies\UnityEngine.Purchasing.Stores.dll"
-a="C:\Users\user\Desktop\game\Unity_game_6_TheSeaSlot\Library\PlayerScriptAssemblies\Unity.XR.Management.dll"
-a="C:\Users\user\Desktop\game\Unity_game_6_TheSeaSlot\Library\PlayerScriptAssemblies\Unity.XR.ARCore.dll"
-a="C:\Users\user\Desktop\game\Unity_game_6_TheSeaSlot\Library\PlayerScriptAssemblies\Unity.XR.ARSubsystems.dll"
-a="C:\Users\user\Desktop\game\Unity_game_6_TheSeaSlot\Library\PlayerScriptAssemblies\UnityEngine.Purchasing.AppleStub.dll"
-a="C:\Users\user\Desktop\game\Unity_game_6_TheSeaSlot\Assets\Plugins\UDP\UDP.dll"
-a="C:\Users\user\Desktop\game\Unity_game_6_TheSeaSlot\Library\PackageCache\com.unity.ext.nunit@1.0.6\net35\unity-custom\nunit.framework.dll"
-a="C:\Users\user\Desktop\game\Unity_game_6_TheSeaSlot\Library\PackageCache\com.unity.analytics@3.6.11\AnalyticsStandardEvents\Unity.Analytics.StandardEvents.dll"
-a="C:\Users\user\Desktop\game\Unity_game_6_TheSeaSlot\Library\PackageCache\com.unity.analytics@3.6.11\Unity.Analytics.Editor.dll"
-a="C:\Users\user\Desktop\game\Unity_game_6_TheSeaSlot\Assets\Plugins\Google.MiniJson.dll"
-a="C:\Users\user\Desktop\game\Unity_game_6_TheSeaSlot\Library\PackageCache\com.unity.analytics@3.6.11\Unity.Analytics.Tracker.dll"
-s="C:\Users\user\Desktop\pj\2021.1.23f1\Editor\Data\Managed\UnityEngine"
-s="C:\Users\user\Desktop\game\Unity_game_6_TheSeaSlot\Library\PlayerScriptAssemblies"
-s="C:\Users\user\Desktop\game\Unity_game_6_TheSeaSlot\Assets\Plugins\UDP"
-s="C:\Users\user\Desktop\game\Unity_game_6_TheSeaSlot\Library\PackageCache\com.unity.ext.nunit@1.0.6\net35\unity-custom"
-s="C:\Users\user\Desktop\game\Unity_game_6_TheSeaSlot\Library\PackageCache\com.unity.analytics@3.6.11\AnalyticsStandardEvents"
-s="C:\Users\user\Desktop\game\Unity_game_6_TheSeaSlot\Library\PackageCache\com.unity.analytics@3.6.11"
-s="C:\Users\user\Desktop\game\Unity_game_6_TheSeaSlot\Assets\Plugins"
-s="C:\Users\user\Desktop\pj\2021.1.23f1\Editor\Data\Managed\UnityEngine"
-s="C:\Users\user\Desktop\pj\2021.1.23f1\Editor\Data\NetStandard\ref\2.0.0"
-s="C:\Users\user\Desktop\pj\2021.1.23f1\Editor\Data\NetStandard\compat\2.0.0\shims\netstandard"
-s="C:\Users\user\Desktop\pj\2021.1.23f1\Editor\Data\NetStandard\Extensions\2.0.0"
-s="C:\Users\user\Desktop\pj\2021.1.23f1\Editor\Data\NetStandard\compat\2.0.0\shims\netfx"
-o="C:\Users\user\Desktop\game\Unity_game_6_TheSeaSlot\Library\BuildPlayerData\Player"
-rn="RuntimeInitializeOnLoads.json"
-tn="TypeDb-All.json"
