Library\Bee\artifacts\movedfrom\UnityEngine.SpatialTracking.ref.dll_16377423706368495610.movedfrom
Library\Bee\artifacts\movedfrom\UnityEngine.UI.ref.dll_12664940582929284107.movedfrom
Library\Bee\artifacts\movedfrom\Unity.Analytics.StandardEvents.dll_5503762903532752553.movedfrom
Library\Bee\artifacts\movedfrom\Unity.Analytics.Tracker.dll_11490113785375945044.movedfrom
Library\Bee\artifacts\movedfrom\UnityEngine.AccessibilityModule.dll_7670188866076761376.movedfrom
Library\Bee\artifacts\movedfrom\UnityEngine.AIModule.dll_4521400664083458394.movedfrom
Library\Bee\artifacts\movedfrom\UnityEngine.AndroidJNIModule.dll_14553276837203696664.movedfrom
Library\Bee\artifacts\movedfrom\UnityEngine.AnimationModule.dll_17880792077076394950.movedfrom
Library\Bee\artifacts\movedfrom\UnityEngine.ARModule.dll_17884360326682920995.movedfrom
Library\Bee\artifacts\movedfrom\UnityEngine.AssetBundleModule.dll_2762409503836135348.movedfrom
Library\Bee\artifacts\movedfrom\UnityEngine.AudioModule.dll_17979781608739697464.movedfrom
Library\Bee\artifacts\movedfrom\UnityEngine.ClothModule.dll_6948316553966572060.movedfrom
Library\Bee\artifacts\movedfrom\UnityEngine.CoreModule.dll_3587452905473884913.movedfrom
Library\Bee\artifacts\movedfrom\UnityEngine.CrashReportingModule.dll_9310744382383462185.movedfrom
Library\Bee\artifacts\movedfrom\UnityEngine.DirectorModule.dll_5522266656276989262.movedfrom
Library\Bee\artifacts\movedfrom\UnityEngine.dll_8088731147529819092.movedfrom
Library\Bee\artifacts\movedfrom\UnityEngine.DSPGraphModule.dll_5905461205098600047.movedfrom
Library\Bee\artifacts\movedfrom\UnityEngine.GameCenterModule.dll_17601450838859140361.movedfrom
Library\Bee\artifacts\movedfrom\UnityEngine.GIModule.dll_15491123779246477684.movedfrom
Library\Bee\artifacts\movedfrom\UnityEngine.GridModule.dll_1097274495939074280.movedfrom
Library\Bee\artifacts\movedfrom\UnityEngine.HotReloadModule.dll_8749952764944387912.movedfrom
Library\Bee\artifacts\movedfrom\UnityEngine.ImageConversionModule.dll_4060432026720104531.movedfrom
Library\Bee\artifacts\movedfrom\UnityEngine.IMGUIModule.dll_3595178187702241049.movedfrom
Library\Bee\artifacts\movedfrom\UnityEngine.InputLegacyModule.dll_13230212230940890533.movedfrom
Library\Bee\artifacts\movedfrom\UnityEngine.InputModule.dll_6916064259885504476.movedfrom
Library\Bee\artifacts\movedfrom\UnityEngine.JSONSerializeModule.dll_14594342708960345514.movedfrom
Library\Bee\artifacts\movedfrom\UnityEngine.LocalizationModule.dll_8935822821541523259.movedfrom
Library\Bee\artifacts\movedfrom\UnityEngine.ParticleSystemModule.dll_15296671829725258423.movedfrom
Library\Bee\artifacts\movedfrom\UnityEngine.PerformanceReportingModule.dll_1674546235894892720.movedfrom
Library\Bee\artifacts\movedfrom\UnityEngine.Physics2DModule.dll_4957132338178747227.movedfrom
Library\Bee\artifacts\movedfrom\UnityEngine.PhysicsModule.dll_15207498514615416073.movedfrom
Library\Bee\artifacts\movedfrom\UnityEngine.ProfilerModule.dll_9144912513206930523.movedfrom
Library\Bee\artifacts\movedfrom\UnityEngine.RuntimeInitializeOnLoadManagerInitializerModule.dll_18272673868825465380.movedfrom
Library\Bee\artifacts\movedfrom\UnityEngine.ScreenCaptureModule.dll_16460994066613594636.movedfrom
Library\Bee\artifacts\movedfrom\UnityEngine.SharedInternalsModule.dll_13576888600879131555.movedfrom
Library\Bee\artifacts\movedfrom\UnityEngine.SpriteMaskModule.dll_15956637038323884675.movedfrom
Library\Bee\artifacts\movedfrom\UnityEngine.SpriteShapeModule.dll_4591202295142881214.movedfrom
Library\Bee\artifacts\movedfrom\UnityEngine.StreamingModule.dll_12446334155934509828.movedfrom
Library\Bee\artifacts\movedfrom\UnityEngine.SubstanceModule.dll_9900415296615524626.movedfrom
Library\Bee\artifacts\movedfrom\UnityEngine.SubsystemsModule.dll_5196805673864317590.movedfrom
Library\Bee\artifacts\movedfrom\UnityEngine.TerrainModule.dll_17100834923933924855.movedfrom
Library\Bee\artifacts\movedfrom\UnityEngine.TerrainPhysicsModule.dll_15331197401499344196.movedfrom
Library\Bee\artifacts\movedfrom\UnityEngine.TextCoreModule.dll_16527608299855426910.movedfrom
Library\Bee\artifacts\movedfrom\UnityEngine.TextRenderingModule.dll_986469662340966913.movedfrom
Library\Bee\artifacts\movedfrom\UnityEngine.TilemapModule.dll_10110236206494768896.movedfrom
Library\Bee\artifacts\movedfrom\UnityEngine.TLSModule.dll_3149764250634492829.movedfrom
Library\Bee\artifacts\movedfrom\UnityEngine.UIElementsModule.dll_5502594597929813645.movedfrom
Library\Bee\artifacts\movedfrom\UnityEngine.UIElementsNativeModule.dll_10248559459320093124.movedfrom
Library\Bee\artifacts\movedfrom\UnityEngine.UIModule.dll_4193656233874419462.movedfrom
Library\Bee\artifacts\movedfrom\UnityEngine.UmbraModule.dll_8383925924167327403.movedfrom
Library\Bee\artifacts\movedfrom\UnityEngine.UNETModule.dll_14154665548491110506.movedfrom
Library\Bee\artifacts\movedfrom\UnityEngine.UnityAnalyticsModule.dll_17575335777677014195.movedfrom
Library\Bee\artifacts\movedfrom\UnityEngine.UnityConnectModule.dll_12355819271309486631.movedfrom
Library\Bee\artifacts\movedfrom\UnityEngine.UnityCurlModule.dll_3117043832354891187.movedfrom
Library\Bee\artifacts\movedfrom\UnityEngine.UnityTestProtocolModule.dll_566974375500305313.movedfrom
Library\Bee\artifacts\movedfrom\UnityEngine.UnityWebRequestAssetBundleModule.dll_5177311265388422596.movedfrom
Library\Bee\artifacts\movedfrom\UnityEngine.UnityWebRequestAudioModule.dll_10320423835742393160.movedfrom
Library\Bee\artifacts\movedfrom\UnityEngine.UnityWebRequestModule.dll_5330174073571510994.movedfrom
Library\Bee\artifacts\movedfrom\UnityEngine.UnityWebRequestTextureModule.dll_115422374145008157.movedfrom
Library\Bee\artifacts\movedfrom\UnityEngine.UnityWebRequestWWWModule.dll_1549120093137086169.movedfrom
Library\Bee\artifacts\movedfrom\UnityEngine.VehiclesModule.dll_14152000818178004201.movedfrom
Library\Bee\artifacts\movedfrom\UnityEngine.VFXModule.dll_12435791334130353418.movedfrom
Library\Bee\artifacts\movedfrom\UnityEngine.VideoModule.dll_2201847383289630429.movedfrom
Library\Bee\artifacts\movedfrom\UnityEngine.VRModule.dll_10161531045479609470.movedfrom
Library\Bee\artifacts\movedfrom\UnityEngine.WindModule.dll_12112445017414254938.movedfrom
Library\Bee\artifacts\movedfrom\UnityEngine.XRModule.dll_13818105417200615900.movedfrom