%YAML 1.1
%TAG !u! tag:unity3d.com,2011:
--- !u!114 &11400000
MonoBehaviour:
  m_ObjectHideFlags: 0
  m_CorrespondingSourceObject: {fileID: 0}
  m_PrefabInstance: {fileID: 0}
  m_PrefabAsset: {fileID: 0}
  m_GameObject: {fileID: 0}
  m_Enabled: 1
  m_EditorHideFlags: 0
  m_Script: {fileID: 11500000, guid: 97841064e27c442f3b45f0e2079b716c, type: 3}
  m_Name: 1_zeusfaber
  m_EditorClassIdentifier: 
  type: 3
  particle: {fileID: 1978309707650864, guid: 0d5b2acf0cd20417c80c6715503f101f, type: 3}
  animationData:
    frames:
    - {fileID: 21300000, guid: 90527400dcecf414bb8843c21f258464, type: 3}
    - {fileID: 21300000, guid: 82f57369f71255f4490c1010bb325ac8, type: 3}
    - {fileID: 21300000, guid: eddca761742cf6a4eb0f60c0a90388db, type: 3}
    - {fileID: 21300000, guid: 015106c66461ba0448a15cc8812b1ce6, type: 3}
    - {fileID: 21300000, guid: 8e030db4f355cf748a890e0d62ee0f36, type: 3}
    - {fileID: 21300000, guid: 52f538c364ac9ca48b59629d7087a23c, type: 3}
    - {fileID: 21300000, guid: 65f39fe2452bd6d49b91498838ff02c0, type: 3}
    - {fileID: 21300000, guid: 65549b1831c686746a8c56c5c478824f, type: 3}
    - {fileID: 21300000, guid: 7916800eb3b902641a6dfd5540e79cdb, type: 3}
    - {fileID: 21300000, guid: eb3899a4bc1edd947aa0519685437f20, type: 3}
    - {fileID: 21300000, guid: 2dbb716b11b72b545a76dc424e4f6cb9, type: 3}
    - {fileID: 21300000, guid: 1f5cdf9f54ddfd140ac3c955b03db653, type: 3}
    - {fileID: 21300000, guid: 9b9994b3d866188438a14c6a7d4cd081, type: 3}
    - {fileID: 21300000, guid: 9d81c4cc380953840a83d4b790b1d19c, type: 3}
    - {fileID: 21300000, guid: 99ac2420fa54fa24eb9756478ceba127, type: 3}
    - {fileID: 21300000, guid: 14472be6ed9e7304e87fea6c97f5b226, type: 3}
    - {fileID: 21300000, guid: b91a52759ec4b3147ae1fecd47d21e41, type: 3}
    - {fileID: 21300000, guid: eb2f9fd0563b47142b93fee0062692f9, type: 3}
    - {fileID: 21300000, guid: 8a490f24750da93459b2d7f4cd21eaaf, type: 3}
    - {fileID: 21300000, guid: 4de0b54bccdfedc41ae322de242defa0, type: 3}
    - {fileID: 21300000, guid: 8d1e73b5ac07ca74985918bd66cd4dd9, type: 3}
    - {fileID: 21300000, guid: 58654d0ddbf277145959f4cb7db8bbfd, type: 3}
    - {fileID: 21300000, guid: 8c10f6607048de848a3b749c1f1da6b3, type: 3}
    - {fileID: 21300000, guid: 8e73a86e86800054790f556f53c90ee9, type: 3}
    - {fileID: 21300000, guid: 2d60a3427c8f256448922ecd2af2688c, type: 3}
    - {fileID: 21300000, guid: 846d2448f62c26c4fb642c60b7e4a871, type: 3}
    - {fileID: 21300000, guid: 4f54dd80ffc85584dbdde312a3489eb1, type: 3}
    - {fileID: 21300000, guid: d533e3cd377c0ec4481a7ffa48caa021, type: 3}
    - {fileID: 21300000, guid: c5fabb2cb94b0b34ba0267aff42adfcd, type: 3}
    - {fileID: 21300000, guid: 8fa1ecc41deb9c24e92d9ca3bd550111, type: 3}
    - {fileID: 21300000, guid: edf949bfca629e24abc9526164fd8fa6, type: 3}
    - {fileID: 21300000, guid: 2b26d940ec33fb74bb5e3333ec3a4cd8, type: 3}
    - {fileID: 21300000, guid: b20c2befb2f32eb40aeef43cd9ee6abc, type: 3}
    - {fileID: 21300000, guid: 439541f422b577549889ad1ad75baef0, type: 3}
    - {fileID: 21300000, guid: 21ea8b8f2b820fe469c0ff33a9986144, type: 3}
    - {fileID: 21300000, guid: 23fbf814b48cb9e4498a110741a4b94d, type: 3}
    - {fileID: 21300000, guid: bcd8ef541f8e1a74cae3eda7320f810b, type: 3}
    - {fileID: 21300000, guid: 387aeb2a07b273641a3307fa21e2192d, type: 3}
    - {fileID: 21300000, guid: 79d1c88908b24ba4bab6ec657c367a6a, type: 3}
    - {fileID: 21300000, guid: 1daaad66bd9b828449f63fb6365824b6, type: 3}
    - {fileID: 21300000, guid: 7b4dbd74bcfa4314f90cf67ae9cb593a, type: 3}
    - {fileID: 21300000, guid: c39539f07b6c23149b784ccee4ff5617, type: 3}
    - {fileID: 21300000, guid: dedd56343d4f6ac4194f25a7f538fe8c, type: 3}
    - {fileID: 21300000, guid: 234a626ea7c421541a7dd9f26cbfa78c, type: 3}
    duration: 1
    delay: 0
  sprite: {fileID: 21300000, guid: 90527400dcecf414bb8843c21f258464, type: 3}
  rule:
    reward:
    - 0
    - 0
    - 4
    - 8
    - 40
    substitutesForWild: 1
