%YAML 1.1
%TAG !u! tag:unity3d.com,2011:
--- !u!114 &11400000
MonoBehaviour:
  m_ObjectHideFlags: 0
  m_CorrespondingSourceObject: {fileID: 0}
  m_PrefabInstance: {fileID: 0}
  m_PrefabAsset: {fileID: 0}
  m_GameObject: {fileID: 0}
  m_Enabled: 1
  m_EditorHideFlags: 0
  m_Script: {fileID: 11500000, guid: 97841064e27c442f3b45f0e2079b716c, type: 3}
  m_Name: 5_zebrasomaflavescens
  m_EditorClassIdentifier: 
  type: 7
  particle: {fileID: 1978309707650864, guid: 0d5b2acf0cd20417c80c6715503f101f, type: 3}
  animationData:
    frames:
    - {fileID: 21300000, guid: 5d909b229aa92a443badd917a6a54878, type: 3}
    - {fileID: 21300000, guid: 831d6b8cbc99a8f46b15fba401f5ba76, type: 3}
    - {fileID: 21300000, guid: 8e73f72635e336045a71b2a85bbabbd2, type: 3}
    - {fileID: 21300000, guid: 9d09ec51eba3e56489cfca268c1fd1ee, type: 3}
    - {fileID: 21300000, guid: 34583ceabbc15644fa6b053c03640f90, type: 3}
    - {fileID: 21300000, guid: 516a17f32539fc64595361a64cf0e067, type: 3}
    - {fileID: 21300000, guid: 91bffb0c08574d446a4b9ff9945c113f, type: 3}
    - {fileID: 21300000, guid: d05c2867f5f746e4a9846ecd87337b09, type: 3}
    - {fileID: 21300000, guid: c2fa61925c833cd43995ecf6e980ad97, type: 3}
    - {fileID: 21300000, guid: 8a864341a17fade42946b4b13b9d9e7a, type: 3}
    - {fileID: 21300000, guid: 462875b56f4e70a4c96a3b242ee7f622, type: 3}
    - {fileID: 21300000, guid: b57df0e5b5c6fb445ac36508407dfce2, type: 3}
    - {fileID: 21300000, guid: 9019e6fb8bec2834bb447e1a0366eaf3, type: 3}
    - {fileID: 21300000, guid: b1f139c3503e3de49bec22d6b1b5822f, type: 3}
    - {fileID: 21300000, guid: fef7bd77fc4837543bcf971476f318e6, type: 3}
    - {fileID: 21300000, guid: c2ae35d404a768b4ab8562aeb471e516, type: 3}
    - {fileID: 21300000, guid: 3d9f0a64aec94904aae31eac16770ef2, type: 3}
    - {fileID: 21300000, guid: d8f8662bd6d129d4883e0969070fcf80, type: 3}
    - {fileID: 21300000, guid: a9bd3c4f57340634681ce19272297e14, type: 3}
    - {fileID: 21300000, guid: 2e4ed81fe773125498c61c5293fd878a, type: 3}
    - {fileID: 21300000, guid: b036e4c88c14f61499814edd0d5b062a, type: 3}
    - {fileID: 21300000, guid: 0d2ebcc3f65063447acc2d33b336b807, type: 3}
    - {fileID: 21300000, guid: 1e6acaf4caec1f84d8da678d1ea9a0f8, type: 3}
    - {fileID: 21300000, guid: b4d15e084b7b7be4e98dc0d6999e8376, type: 3}
    - {fileID: 21300000, guid: 53f6205050c4d2b48b93cd24a12732ab, type: 3}
    - {fileID: 21300000, guid: 84229dccd445ad3459a590cd27f3f732, type: 3}
    - {fileID: 21300000, guid: 029e78b615a002244beec98e9fbc0464, type: 3}
    - {fileID: 21300000, guid: 93541a8a343b7854cb96ae938eb5068d, type: 3}
    - {fileID: 21300000, guid: 060ecc9cad5528f419599a1d62969f7e, type: 3}
    - {fileID: 21300000, guid: fbfa940ebb0364f4f82d1fcafd0f5b54, type: 3}
    - {fileID: 21300000, guid: 1b9614aabb6a5d84e9717a3c4c8d222d, type: 3}
    - {fileID: 21300000, guid: 3ab89c3b6915ca64489979f6cfb915ad, type: 3}
    - {fileID: 21300000, guid: f202a533845cb634384874849af2d3e8, type: 3}
    - {fileID: 21300000, guid: 3a74ea2ade8a4e84389fb7544e841a2d, type: 3}
    - {fileID: 21300000, guid: e59e7ba2afd354f4b8becee4d5a48ffa, type: 3}
    - {fileID: 21300000, guid: 763014e76c3e7cc4089db7ff75085c7c, type: 3}
    - {fileID: 21300000, guid: d264ac470144daf4a918dfad80827eb4, type: 3}
    - {fileID: 21300000, guid: 40023f0fe544de047b5febfc8c665f35, type: 3}
    - {fileID: 21300000, guid: 9c8635e6cb84ce5409ad23793746a0f2, type: 3}
    - {fileID: 21300000, guid: 859a59aaad20a5048a29c154e6f74c0c, type: 3}
    - {fileID: 21300000, guid: 171d7a4c2fbe8734a8e0ae53ae823f89, type: 3}
    - {fileID: 21300000, guid: 70c243ea4d62fd145bb670736f4692f5, type: 3}
    - {fileID: 21300000, guid: 693b9fc247c343944b927fcc3b85c1d6, type: 3}
    - {fileID: 21300000, guid: 3c7f0e57917804e438b6d62ccab34212, type: 3}
    duration: 1
    delay: 0
  sprite: {fileID: 21300000, guid: 5d909b229aa92a443badd917a6a54878, type: 3}
  rule:
    reward:
    - 0
    - 0
    - 15
    - 100
    - 250
    substitutesForWild: 1
